{"tracks":{"total":1000,"items":[{"name":"Kill Bill (feat. Doja Cat)","id":"0CrcwVLUe8wzLUIXgjXVZJ","popularity":86,"href":"https://api.spotify.com/v1/tracks/0CrcwVLUe8wzLUIXgjXVZJ","type":"track","artists":[{"name":"SZA","id":"7tYKF4w9nC0nq9CsPZTHyP","type":"artist","href":"https://api.spotify.com/v1/artists/7tYKF4w9nC0nq9CsPZTHyP"},{"name":"Doja Cat","id":"5cj0lLjcoR7YOSnhnX0Po5","type":"artist","href":"https://api.spotify.com/v1/artists/5cj0lLjcoR7YOSnhnX0Po5"}],"album":{"name":"Kill Bill (feat. Doja Cat)","id":"4OanbmuJAWz8JPVE4cJA9L","type":"album","href":"https://api.spotify.com/v1/albums/4OanbmuJAWz8JPVE4cJA9L","images":[{"url":"https://i.scdn.co/image/ab67616d0000b273c3b70a0848d577bf5ae67b49","height":640,"width":640},{"url":"https://i.scdn.co/image/ab67616d00001e02c3b70a0848d577bf5ae67b49","height":300,"width":300},{"url":"https://i.scdn.co/image/ab67616d00004851c3b70a0848d577bf5ae67b49","height":64,"width":64}],"total_tracks":1,"release_date":"2023-04-14","release_date_precision":"day","album_type":"single","album_group":"single","artists":[{"name":"SZA","id":"7tYKF4w9nC0nq9CsPZTHyP","type":"artist","href":"https://api.spotify.com/v1/artists/7tYKF4w9nC0nq9CsPZTHyP"},{"name":"Doja Cat","id":"5cj0lLjcoR7YOSnhnX0Po5","type":"artist","href":"https://api.spotify.com/v1/artists/5cj0lLjcoR7YOSnhnX0Po5"}]}},{"name":"Need to Know","id":"3Vi5XqYrmQgOYBajMWSvCi","popularity":82,"href":"https://api.spotify.com/v1/tracks/3Vi5XqYrmQgOYBajMWSvCi","type":"track","artists":[{"name":"Doja Cat","id":"5cj0lLjcoR7YOSnhnX0Po5","type":"artist","href":"https://api.spotify.com/v1/artists/5cj0lLjcoR7YOSnhnX0Po5"}],"album":{"name":"Planet Her","id":"1nAQbHeOWTfQzbOoFrvndW","type":"album","href":"https://api.spotify.com/v1/albums/1nAQbHeOWTfQzbOoFrvndW","images":[{"url":"https://i.scdn.co/image/ab67616d0000b2734df3245f26298a1579ecc321","height":640,"width":640},{"url":"https://i.scdn.co/image/ab67616d00001e024df3245f26298a1579ecc321","height":300,"width":300},{"url":"https://i.scdn.co/image/ab67616d000048514df3245f26298a1579ecc321","height":64,"width":64}],"total_tracks":14,"release_date":"2021-06-25","release_date_precision":"day","album_type":"album","album_group":"album","artists":[{"name":"Doja Cat","id":"5cj0lLjcoR7YOSnhnX0Po5","type":"artist","href":"https://api.spotify.com/v1/artists/5cj0lLjcoR7YOSnhnX0Po5"}]}},{"name":"Woman","id":"6Uj1ctrBOjOas8xZXGqKk4","popularity":87,"href":"https://api.spotify.com/v1/tracks/6Uj1ctrBOjOas8xZXGqKk4","type":"track","artists":[{"name":"Doja Cat","id":"5cj0lLjcoR7YOSnhnX0Po5","type":"artist","href":"https://api.spotify.com/v1/artists/5cj0lLjcoR7YOSnhnX0Po5"}],"album":{"name":"Planet Her","id":"1nAQbHeOWTfQzbOoFrvndW","type":"album","href":"https://api.spotify.com/v1/albums/1nAQbHeOWTfQzbOoFrvndW","images":[{"url":"https://i.scdn.co/image/ab67616d0000b2734df3245f26298a1579ecc321","height":640,"width":640},{"url":"https://i.scdn.co/image/ab67616d00001e024df3245f26298a1579ecc321","height":300,"width":300},{"url":"https://i.scdn.co/image/ab67616d000048514df3245f26298a1579ecc321","height":64,"width":64}],"total_tracks":14,"release_date":"2021-06-25","release_date_precision":"day","album_type":"album","album_group":"album","artists":[{"name":"Doja Cat","id":"5cj0lLjcoR7YOSnhnX0Po5","type":"artist","href":"https://api.spotify.com/v1/artists/5cj0lLjcoR7YOSnhnX0Po5"}]}},{"name":"I Like You (A Happier Song) (with Doja Cat)","id":"0O6u0VJ46W86TxN9wgyqDj","popularity":87,"href":"https://api.spotify.com/v1/tracks/0O6u0VJ46W86TxN9wgyqDj","type":"track","artists":[{"name":"Post Malone","id":"246dkjvS1zLTtiykXe5h60","type":"artist","href":"https://api.spotify.com/v1/artists/246dkjvS1zLTtiykXe5h60"},{"name":"Doja Cat","id":"5cj0lLjcoR7YOSnhnX0Po5","type":"artist","href":"https://api.spotify.com/v1/artists/5cj0lLjcoR7YOSnhnX0Po5"}],"album":{"name":"Twelve Carat Toothache","id":"3HHNR44YbP7XogMVwzbodx","type":"album","href":"https://api.spotify.com/v1/albums/3HHNR44YbP7XogMVwzbodx","images":[{"url":"https://i.scdn.co/image/ab67616d0000b27334362676667a4322838ccc97","height":640,"width":640},{"url":"https://i.scdn.co/image/ab67616d00001e0234362676667a4322838ccc97","height":300,"width":300},{"url":"https://i.scdn.co/image/ab67616d0000485134362676667a4322838ccc97","height":64,"width":64}],"total_tracks":14,"release_date":"2022-06-03","release_date_precision":"day","album_type":"album","album_group":"album","artists":[{"name":"Post Malone","id":"246dkjvS1zLTtiykXe5h60","type":"artist","href":"https://api.spotify.com/v1/artists/246dkjvS1zLTtiykXe5h60"}]}},{"name":"Streets","id":"60ynsPSSKe6O3sfwRnIBRf","popularity":83,"href":"https://api.spotify.com/v1/tracks/60ynsPSSKe6O3sfwRnIBRf","type":"track","artists":[{"name":"Doja Cat","id":"5cj0lLjcoR7YOSnhnX0Po5","type":"artist","href":"https://api.spotify.com/v1/artists/5cj0lLjcoR7YOSnhnX0Po5"}],"album":{"name":"Hot Pink","id":"1MmVkhiwTH0BkNOU3nw5d3","type":"album","href":"https://api.spotify.com/v1/albums/1MmVkhiwTH0BkNOU3nw5d3","images":[{"url":"https://i.scdn.co/image/ab67616d0000b27382b243023b937fd579a35533","height":640,"width":640},{"url":"https://i.scdn.co/image/ab67616d00001e0282b243023b937fd579a35533","height":300,"width":300},{"url":"https://i.scdn.co/image/ab67616d0000485182b243023b937fd579a35533","height":64,"width":64}],"total_tracks":12,"release_date":"2019-11-07","release_date_precision":"day","album_type":"album","album_group":"album","artists":[{"name":"Doja Cat","id":"5cj0lLjcoR7YOSnhnX0Po5","type":"artist","href":"https://api.spotify.com/v1/artists/5cj0lLjcoR7YOSnhnX0Po5"}]}},{"name":"Vegas (From the Original Motion Picture Soundtrack ELVIS)","id":"0hquQWY3xvYqN4qtiquniF","popularity":83,"href":"https://api.spotify.com/v1/tracks/0hquQWY3xvYqN4qtiquniF","type":"track","artists":[{"name":"Doja Cat","id":"5cj0lLjcoR7YOSnhnX0Po5","type":"artist","href":"https://api.spotify.com/v1/artists/5cj0lLjcoR7YOSnhnX0Po5"}],"album":{"name":"Vegas (From the Original Motion Picture Soundtrack ELVIS)","id":"2Q5DPv9uliinOBSdNooIe3","type":"album","href":"https://api.spotify.com/v1/albums/2Q5DPv9uliinOBSdNooIe3","images":[{"url":"https://i.scdn.co/image/ab67616d0000b27329e2914af6e83df7e963d365","height":640,"width":640},{"url":"https://i.scdn.co/image/ab67616d00001e0229e2914af6e83df7e963d365","height":300,"width":300},{"url":"https://i.scdn.co/image/ab67616d0000485129e2914af6e83df7e963d365","height":64,"width":64}],"total_tracks":1,"release_date":"2022-05-06","release_date_precision":"day","album_type":"single","album_group":"single","artists":[{"name":"Doja Cat","id":"5cj0lLjcoR7YOSnhnX0Po5","type":"artist","href":"https://api.spotify.com/v1/artists/5cj0lLjcoR7YOSnhnX0Po5"}]}},{"name":"Ain't Shit","id":"5lAnYvAIkSDNXqfo7DyFUm","popularity":79,"href":"https://api.spotify.com/v1/tracks/5lAnYvAIkSDNXqfo7DyFUm","type":"track","artists":[{"name":"Doja Cat","id":"5cj0lLjcoR7YOSnhnX0Po5","type":"artist","href":"https://api.spotify.com/v1/artists/5cj0lLjcoR7YOSnhnX0Po5"}],"album":{"name":"Planet Her","id":"1nAQbHeOWTfQzbOoFrvndW","type":"album","href":"https://api.spotify.com/v1/albums/1nAQbHeOWTfQzbOoFrvndW","images":[{"url":"https://i.scdn.co/image/ab67616d0000b2734df3245f26298a1579ecc321","height":640,"width":640},{"url":"https://i.scdn.co/image/ab67616d00001e024df3245f26298a1579ecc321","height":300,"width":300},{"url":"https://i.scdn.co/image/ab67616d000048514df3245f26298a1579ecc321","height":64,"width":64}],"total_tracks":14,"release_date":"2021-06-25","release_date_precision":"day","album_type":"album","album_group":"album","artists":[{"name":"Doja Cat","id":"5cj0lLjcoR7YOSnhnX0Po5","type":"artist","href":"https://api.spotify.com/v1/artists/5cj0lLjcoR7YOSnhnX0Po5"}]}},{"name":"Kiss Me More (feat. SZA)","id":"3DarAbFujv6eYNliUTyqtz","popularity":82,"href":"https://api.spotify.com/v1/tracks/3DarAbFujv6eYNliUTyqtz","type":"track","artists":[{"name":"Doja Cat","id":"5cj0lLjcoR7YOSnhnX0Po5","type":"artist","href":"https://api.spotify.com/v1/artists/5cj0lLjcoR7YOSnhnX0Po5"},{"name":"SZA","id":"7tYKF4w9nC0nq9CsPZTHyP","type":"artist","href":"https://api.spotify.com/v1/artists/7tYKF4w9nC0nq9CsPZTHyP"}],"album":{"name":"Planet Her","id":"1nAQbHeOWTfQzbOoFrvndW","type":"album","href":"https://api.spotify.com/v1/albums/1nAQbHeOWTfQzbOoFrvndW","images":[{"url":"https://i.scdn.co/image/ab67616d0000b2734df3245f26298a1579ecc321","height":640,"width":640},{"url":"https://i.scdn.co/image/ab67616d00001e024df3245f26298a1579ecc321","height":300,"width":300},{"url":"https://i.scdn.co/image/ab67616d000048514df3245f26298a1579ecc321","height":64,"width":64}],"total_tracks":14,"release_date":"2021-06-25","release_date_precision":"day","album_type":"album","album_group":"album","artists":[{"name":"Doja Cat","id":"5cj0lLjcoR7YOSnhnX0Po5","type":"artist","href":"https://api.spotify.com/v1/artists/5cj0lLjcoR7YOSnhnX0Po5"}]}}],"offset":0,"limit":8,"next":"https://api.spotify.com/v1/search?query=doja+cat&type=track&market=US&offset=8&limit=8"},"artists":{"total":22,"items":[{"name":"Doja Cat","id":"5cj0lLjcoR7YOSnhnX0Po5","type":"artist","popularity":87,"href":"https://api.spotify.com/v1/artists/5cj0lLjcoR7YOSnhnX0Po5","genres":["dance pop","pop"],"images":[{"url":"https://i.scdn.co/image/ab6761610000e5eb727a2ac15afe659be999beba","height":640,"width":640},{"url":"https://i.scdn.co/image/ab67616100005174727a2ac15afe659be999beba","height":320,"width":320},{"url":"https://i.scdn.co/image/ab6761610000f178727a2ac15afe659be999beba","height":160,"width":160}]},{"name":"Doja King","id":"4kZGSaAmLcWgVLnnODwSRe","type":"artist","popularity":8,"href":"https://api.spotify.com/v1/artists/4kZGSaAmLcWgVLnnODwSRe","genres":[],"images":[{"url":"https://i.scdn.co/image/ab6761610000e5ebb34101fbeef17f56717c5faa","height":640,"width":640},{"url":"https://i.scdn.co/image/ab67616100005174b34101fbeef17f56717c5faa","height":320,"width":320},{"url":"https://i.scdn.co/image/ab6761610000f178b34101fbeef17f56717c5faa","height":160,"width":160}]},{"name":"SZA","id":"7tYKF4w9nC0nq9CsPZTHyP","type":"artist","popularity":91,"href":"https://api.spotify.com/v1/artists/7tYKF4w9nC0nq9CsPZTHyP","genres":["pop","r&b","rap"],"images":[{"url":"https://i.scdn.co/image/ab6761610000e5eb7eb7f6371aad8e67e01f0a03","height":640,"width":640},{"url":"https://i.scdn.co/image/ab676161000051747eb7f6371aad8e67e01f0a03","height":320,"width":320},{"url":"https://i.scdn.co/image/ab6761610000f1787eb7f6371aad8e67e01f0a03","height":160,"width":160}]},{"name":"Doe Doja","id":"5t2a5GXvH8UrfejljBKgQo","type":"artist","popularity":12,"href":"https://api.spotify.com/v1/artists/5t2a5GXvH8UrfejljBKgQo","genres":[],"images":[]},{"name":"StarBoi3","id":"2WgfkM8S11vg4kxLgDY3F5","type":"artist","popularity":52,"href":"https://api.spotify.com/v1/artists/2WgfkM8S11vg4kxLgDY3F5","genres":["viral rap"],"images":[{"url":"https://i.scdn.co/image/ab6761610000e5eb8ae59f522a8e1f5153f9af81","height":640,"width":640},{"url":"https://i.scdn.co/image/ab676161000051748ae59f522a8e1f5153f9af81","height":320,"width":320},{"url":"https://i.scdn.co/image/ab6761610000f1788ae59f522a8e1f5153f9af81","height":160,"width":160}]},{"name":"JoCat","id":"5a4HWP4bZruTQ7mvqcOsSw","type":"artist","popularity":9,"href":"https://api.spotify.com/v1/artists/5a4HWP4bZruTQ7mvqcOsSw","genres":[],"images":[{"url":"https://i.scdn.co/image/ab67616d0000b273139cfe8842d2722fc83e81ed","height":640,"width":640},{"url":"https://i.scdn.co/image/ab67616d00001e02139cfe8842d2722fc83e81ed","height":300,"width":300},{"url":"https://i.scdn.co/image/ab67616d00004851139cfe8842d2722fc83e81ed","height":64,"width":64}]},{"name":"Com Truise","id":"2wouN3QXejYa5tKetYdcVX","type":"artist","popularity":55,"href":"https://api.spotify.com/v1/artists/2wouN3QXejYa5tKetYdcVX","genres":["chillwave","indietronica","vaporwave"],"images":[{"url":"https://i.scdn.co/image/ab6761610000e5eb9ee8f1bb8c981f3865d8e7c5","height":640,"width":640},{"url":"https://i.scdn.co/image/ab676161000051749ee8f1bb8c981f3865d8e7c5","height":320,"width":320},{"url":"https://i.scdn.co/image/ab6761610000f1789ee8f1bb8c981f3865d8e7c5","height":160,"width":160}]},{"name":"Dojia V","id":"2tlmjXB4JV6BlVZSliQSNw","type":"artist","popularity":2,"href":"https://api.spotify.com/v1/artists/2tlmjXB4JV6BlVZSliQSNw","genres":[],"images":[{"url":"https://i.scdn.co/image/ab67616d0000b273647e1f2d47d046d45bd0e0cb","height":640,"width":640},{"url":"https://i.scdn.co/image/ab67616d00001e02647e1f2d47d046d45bd0e0cb","height":300,"width":300},{"url":"https://i.scdn.co/image/ab67616d00004851647e1f2d47d046d45bd0e0cb","height":64,"width":64}]}],"offset":0,"limit":8,"next":"https://api.spotify.com/v1/search?query=doja+cat&type=artist&market=US&offset=8&limit=8"},"albums":{"total":319,"items":[{"name":"Planet Her","id":"1nAQbHeOWTfQzbOoFrvndW","type":"album","href":"https://api.spotify.com/v1/albums/1nAQbHeOWTfQzbOoFrvndW","images":[{"url":"https://i.scdn.co/image/ab67616d0000b2734df3245f26298a1579ecc321","height":640,"width":640},{"url":"https://i.scdn.co/image/ab67616d00001e024df3245f26298a1579ecc321","height":300,"width":300},{"url":"https://i.scdn.co/image/ab67616d000048514df3245f26298a1579ecc321","height":64,"width":64}],"total_tracks":14,"release_date":"2021-06-25","release_date_precision":"day","album_type":"album","album_group":"album","artists":[{"name":"Doja Cat","id":"5cj0lLjcoR7YOSnhnX0Po5","type":"artist","href":"https://api.spotify.com/v1/artists/5cj0lLjcoR7YOSnhnX0Po5"}]},{"name":"Planet Her (Deluxe)","id":"4XLPYMERZZaBzkJg0mkdvO","type":"album","href":"https://api.spotify.com/v1/albums/4XLPYMERZZaBzkJg0mkdvO","images":[{"url":"https://i.scdn.co/image/ab67616d0000b2734c767857a41ec9da231adb6a","height":640,"width":640},{"url":"https://i.scdn.co/image/ab67616d00001e024c767857a41ec9da231adb6a","height":300,"width":300},{"url":"https://i.scdn.co/image/ab67616d000048514c767857a41ec9da231adb6a","height":64,"width":64}],"total_tracks":19,"release_date":"2021-06-27","release_date_precision":"day","album_type":"album","album_group":"album","artists":[{"name":"Doja Cat","id":"5cj0lLjcoR7YOSnhnX0Po5","type":"artist","href":"https://api.spotify.com/v1/artists/5cj0lLjcoR7YOSnhnX0Po5"}]},{"name":"Hot Pink","id":"1MmVkhiwTH0BkNOU3nw5d3","type":"album","href":"https://api.spotify.com/v1/albums/1MmVkhiwTH0BkNOU3nw5d3","images":[{"url":"https://i.scdn.co/image/ab67616d0000b27382b243023b937fd579a35533","height":640,"width":640},{"url":"https://i.scdn.co/image/ab67616d00001e0282b243023b937fd579a35533","height":300,"width":300},{"url":"https://i.scdn.co/image/ab67616d0000485182b243023b937fd579a35533","height":64,"width":64}],"total_tracks":12,"release_date":"2019-11-07","release_date_precision":"day","album_type":"album","album_group":"album","artists":[{"name":"Doja Cat","id":"5cj0lLjcoR7YOSnhnX0Po5","type":"artist","href":"https://api.spotify.com/v1/artists/5cj0lLjcoR7YOSnhnX0Po5"}]},{"name":"Kill Bill (feat. Doja Cat)","id":"4OanbmuJAWz8JPVE4cJA9L","type":"album","href":"https://api.spotify.com/v1/albums/4OanbmuJAWz8JPVE4cJA9L","images":[{"url":"https://i.scdn.co/image/ab67616d0000b273c3b70a0848d577bf5ae67b49","height":640,"width":640},{"url":"https://i.scdn.co/image/ab67616d00001e02c3b70a0848d577bf5ae67b49","height":300,"width":300},{"url":"https://i.scdn.co/image/ab67616d00004851c3b70a0848d577bf5ae67b49","height":64,"width":64}],"total_tracks":1,"release_date":"2023-04-14","release_date_precision":"day","album_type":"single","album_group":"single","artists":[{"name":"SZA","id":"7tYKF4w9nC0nq9CsPZTHyP","type":"artist","href":"https://api.spotify.com/v1/artists/7tYKF4w9nC0nq9CsPZTHyP"},{"name":"Doja Cat","id":"5cj0lLjcoR7YOSnhnX0Po5","type":"artist","href":"https://api.spotify.com/v1/artists/5cj0lLjcoR7YOSnhnX0Po5"}]},{"name":"Amala","id":"54tInqO543zy0Y5F2VsUQI","type":"album","href":"https://api.spotify.com/v1/albums/54tInqO543zy0Y5F2VsUQI","images":[{"url":"https://i.scdn.co/image/ab67616d0000b273c42f6b7b41537a5fae06840a","height":640,"width":640},{"url":"https://i.scdn.co/image/ab67616d00001e02c42f6b7b41537a5fae06840a","height":300,"width":300},{"url":"https://i.scdn.co/image/ab67616d00004851c42f6b7b41537a5fae06840a","height":64,"width":64}],"total_tracks":13,"release_date":"2018-03-30","release_date_precision":"day","album_type":"album","album_group":"album","artists":[{"name":"Doja Cat","id":"5cj0lLjcoR7YOSnhnX0Po5","type":"artist","href":"https://api.spotify.com/v1/artists/5cj0lLjcoR7YOSnhnX0Po5"}]},{"name":"Vegas (From the Original Motion Picture Soundtrack ELVIS)","id":"2Q5DPv9uliinOBSdNooIe3","type":"album","href":"https://api.spotify.com/v1/albums/2Q5DPv9uliinOBSdNooIe3","images":[{"url":"https://i.scdn.co/image/ab67616d0000b27329e2914af6e83df7e963d365","height":640,"width":640},{"url":"https://i.scdn.co/image/ab67616d00001e0229e2914af6e83df7e963d365","height":300,"width":300},{"url":"https://i.scdn.co/image/ab67616d0000485129e2914af6e83df7e963d365","height":64,"width":64}],"total_tracks":1,"release_date":"2022-05-06","release_date_precision":"day","album_type":"single","album_group":"single","artists":[{"name":"Doja Cat","id":"5cj0lLjcoR7YOSnhnX0Po5","type":"artist","href":"https://api.spotify.com/v1/artists/5cj0lLjcoR7YOSnhnX0Po5"}]},{"name":"Planet Her","id":"4yBOVyQv3IdSptKDx4wL1d","type":"album","href":"https://api.spotify.com/v1/albums/4yBOVyQv3IdSptKDx4wL1d","images":[{"url":"https://i.scdn.co/image/ab67616d0000b2738089c1efbeea92b6459ebc57","height":640,"width":640},{"url":"https://i.scdn.co/image/ab67616d00001e028089c1efbeea92b6459ebc57","height":300,"width":300},{"url":"https://i.scdn.co/image/ab67616d000048518089c1efbeea92b6459ebc57","height":64,"width":64}],"total_tracks":13,"release_date":"2021-06-24","release_date_precision":"day","album_type":"album","album_group":"album","artists":[{"name":"Doja Cat","id":"5cj0lLjcoR7YOSnhnX0Po5","type":"artist","href":"https://api.spotify.com/v1/artists/5cj0lLjcoR7YOSnhnX0Po5"}]},{"name":"Hot Pink","id":"3n5Coa56i6foIGITrYGX7o","type":"album","href":"https://api.spotify.com/v1/albums/3n5Coa56i6foIGITrYGX7o","images":[{"url":"https://i.scdn.co/image/ab67616d0000b27326e684ac28ebce7cbbfe3893","height":640,"width":640},{"url":"https://i.scdn.co/image/ab67616d00001e0226e684ac28ebce7cbbfe3893","height":300,"width":300},{"url":"https://i.scdn.co/image/ab67616d0000485126e684ac28ebce7cbbfe3893","height":64,"width":64}],"total_tracks":12,"release_date":"2019-11-07","release_date_precision":"day","album_type":"album","album_group":"album","artists":[{"name":"Doja Cat","id":"5cj0lLjcoR7YOSnhnX0Po5","type":"artist","href":"https://api.spotify.com/v1/artists/5cj0lLjcoR7YOSnhnX0Po5"}]}],"offset":0,"limit":8,"next":"https://api.spotify.com/v1/search?query=doja+cat&type=album&market=US&offset=8&limit=8"}},"params":{"offset":["0"],"query":["doja cat"]}